[
{
    "model": "bike_app.rastrelliera_bicicletta",
    "pk": 39,
    "fields": {
        "rastrelliera": 3,
        "bicicletta": 16
    }
},
{
    "model": "bike_app.rastrelliera_bicicletta",
    "pk": 40,
    "fields": {
        "rastrelliera": 3,
        "bicicletta": 17
    }
},
{
    "model": "bike_app.rastrelliera_bicicletta",
    "pk": 86,
    "fields": {
        "rastrelliera": 84,
        "bicicletta": 33
    }
},
{
    "model": "bike_app.rastrelliera_bicicletta",
    "pk": 87,
    "fields": {
        "rastrelliera": 6,
        "bicicletta": 39
    }
},
{
    "model": "bike_app.rastrelliera_bicicletta",
    "pk": 91,
    "fields": {
        "rastrelliera": 17,
        "bicicletta": 19
    }
},
{
    "model": "bike_app.rastrelliera_bicicletta",
    "pk": 95,
    "fields": {
        "rastrelliera": 42,
        "bicicletta": 32
    }
},
{
    "model": "bike_app.rastrelliera_bicicletta",
    "pk": 96,
    "fields": {
        "rastrelliera": 38,
        "bicicletta": 18
    }
},
{
    "model": "bike_app.rastrelliera_bicicletta",
    "pk": 97,
    "fields": {
        "rastrelliera": 26,
        "bicicletta": 6
    }
},
{
    "model": "bike_app.rastrelliera_bicicletta",
    "pk": 98,
    "fields": {
        "rastrelliera": 36,
        "bicicletta": 38
    }
},
{
    "model": "bike_app.rastrelliera_bicicletta",
    "pk": 100,
    "fields": {
        "rastrelliera": 138,
        "bicicletta": 5
    }
},
{
    "model": "bike_app.rastrelliera_bicicletta",
    "pk": 101,
    "fields": {
        "rastrelliera": 81,
        "bicicletta": 40
    }
},
{
    "model": "bike_app.rastrelliera_bicicletta",
    "pk": 102,
    "fields": {
        "rastrelliera": 105,
        "bicicletta": 41
    }
},
{
    "model": "bike_app.rastrelliera_bicicletta",
    "pk": 103,
    "fields": {
        "rastrelliera": 21,
        "bicicletta": 42
    }
},
{
    "model": "bike_app.rastrelliera_bicicletta",
    "pk": 104,
    "fields": {
        "rastrelliera": 90,
        "bicicletta": 43
    }
},
{
    "model": "bike_app.rastrelliera_bicicletta",
    "pk": 105,
    "fields": {
        "rastrelliera": 77,
        "bicicletta": 44
    }
},
{
    "model": "bike_app.rastrelliera_bicicletta",
    "pk": 106,
    "fields": {
        "rastrelliera": 6,
        "bicicletta": 45
    }
},
{
    "model": "bike_app.rastrelliera_bicicletta",
    "pk": 107,
    "fields": {
        "rastrelliera": 63,
        "bicicletta": 46
    }
},
{
    "model": "bike_app.rastrelliera_bicicletta",
    "pk": 108,
    "fields": {
        "rastrelliera": 8,
        "bicicletta": 47
    }
},
{
    "model": "bike_app.rastrelliera_bicicletta",
    "pk": 109,
    "fields": {
        "rastrelliera": 121,
        "bicicletta": 34
    }
},
{
    "model": "bike_app.rastrelliera_bicicletta",
    "pk": 110,
    "fields": {
        "rastrelliera": 71,
        "bicicletta": 35
    }
},
{
    "model": "bike_app.rastrelliera_bicicletta",
    "pk": 111,
    "fields": {
        "rastrelliera": 92,
        "bicicletta": 36
    }
},
{
    "model": "bike_app.rastrelliera_bicicletta",
    "pk": 112,
    "fields": {
        "rastrelliera": 118,
        "bicicletta": 37
    }
},
{
    "model": "bike_app.rastrelliera_bicicletta",
    "pk": 113,
    "fields": {
        "rastrelliera": 20,
        "bicicletta": 28
    }
},
{
    "model": "bike_app.rastrelliera_bicicletta",
    "pk": 114,
    "fields": {
        "rastrelliera": 76,
        "bicicletta": 29
    }
},
{
    "model": "bike_app.rastrelliera_bicicletta",
    "pk": 115,
    "fields": {
        "rastrelliera": 16,
        "bicicletta": 30
    }
},
{
    "model": "bike_app.rastrelliera_bicicletta",
    "pk": 116,
    "fields": {
        "rastrelliera": 61,
        "bicicletta": 31
    }
},
{
    "model": "bike_app.rastrelliera_bicicletta",
    "pk": 117,
    "fields": {
        "rastrelliera": 65,
        "bicicletta": 20
    }
},
{
    "model": "bike_app.rastrelliera_bicicletta",
    "pk": 118,
    "fields": {
        "rastrelliera": 60,
        "bicicletta": 21
    }
},
{
    "model": "bike_app.rastrelliera_bicicletta",
    "pk": 119,
    "fields": {
        "rastrelliera": 57,
        "bicicletta": 22
    }
},
{
    "model": "bike_app.rastrelliera_bicicletta",
    "pk": 120,
    "fields": {
        "rastrelliera": 138,
        "bicicletta": 23
    }
},
{
    "model": "bike_app.rastrelliera_bicicletta",
    "pk": 121,
    "fields": {
        "rastrelliera": 101,
        "bicicletta": 24
    }
},
{
    "model": "bike_app.rastrelliera_bicicletta",
    "pk": 122,
    "fields": {
        "rastrelliera": 114,
        "bicicletta": 25
    }
},
{
    "model": "bike_app.rastrelliera_bicicletta",
    "pk": 123,
    "fields": {
        "rastrelliera": 62,
        "bicicletta": 26
    }
},
{
    "model": "bike_app.rastrelliera_bicicletta",
    "pk": 124,
    "fields": {
        "rastrelliera": 48,
        "bicicletta": 27
    }
},
{
    "model": "bike_app.rastrelliera_bicicletta",
    "pk": 125,
    "fields": {
        "rastrelliera": 123,
        "bicicletta": 7
    }
},
{
    "model": "bike_app.rastrelliera_bicicletta",
    "pk": 126,
    "fields": {
        "rastrelliera": 72,
        "bicicletta": 8
    }
},
{
    "model": "bike_app.rastrelliera_bicicletta",
    "pk": 127,
    "fields": {
        "rastrelliera": 18,
        "bicicletta": 12
    }
},
{
    "model": "bike_app.rastrelliera_bicicletta",
    "pk": 128,
    "fields": {
        "rastrelliera": 136,
        "bicicletta": 13
    }
},
{
    "model": "bike_app.rastrelliera_bicicletta",
    "pk": 129,
    "fields": {
        "rastrelliera": 17,
        "bicicletta": 14
    }
},
{
    "model": "bike_app.rastrelliera_bicicletta",
    "pk": 130,
    "fields": {
        "rastrelliera": 140,
        "bicicletta": 15
    }
}
]
